…
``` r
# retain certain columns in df
nyc_transit_df = nyc_transit_df %>% select(line, station_name, station_latitude, station_longitude, route1, route2, route3, route4, route5, route6, route7, route8, route9, route10, route11, entry, entrance_type, vending, ada) 
```

``` r
# recode entry variable from character to logical type
nyc_transit_df$entry = ifelse(nyc_transit_df$entry=="YES", TRUE, FALSE)
nyc_transit_df
```

    ## # A tibble: 1,868 × 19
    ##    line     station_name station_latitude station_longitude route1 route2 route3
    ##    <chr>    <chr>                   <dbl>             <dbl> <chr>  <chr>  <chr> 
    ##  1 4 Avenue 25th St                  40.7             -74.0 R      <NA>   <NA>  
    ##  2 4 Avenue 25th St                  40.7             -74.0 R      <NA>   <NA>  
    ##  3 4 Avenue 36th St                  40.7             -74.0 N      R      <NA>  
    ##  4 4 Avenue 36th St                  40.7             -74.0 N      R      <NA>  
    ##  5 4 Avenue 36th St                  40.7             -74.0 N      R      <NA>  
    ##  6 4 Avenue 45th St                  40.6             -74.0 R      <NA>   <NA>  
    ##  7 4 Avenue 45th St                  40.6             -74.0 R      <NA>   <NA>  
    ##  8 4 Avenue 45th St                  40.6             -74.0 R      <NA>   <NA>  
    ##  9 4 Avenue 45th St                  40.6             -74.0 R      <NA>   <NA>  
    ## 10 4 Avenue 53rd St                  40.6             -74.0 R      <NA>   <NA>  
    ## # … with 1,858 more rows, and 12 more variables: route4 <chr>, route5 <chr>,
    ## #   route6 <chr>, route7 <chr>, route8 <dbl>, route9 <dbl>, route10 <dbl>,
    ## #   route11 <dbl>, entry <lgl>, entrance_type <chr>, vending <chr>, ada <lgl>
